…
## Usage

### Basic usage

To import the latest HGNC gene data set in tabular format directly into
memory as a tibble do as follows:

``` r
library(hgnc)
# Check the date of HGNC last update
last_update()
#> [1] "2025-06-17 11:10:30 UTC"
# Import the data set in tidy tabular format
(hgnc_dataset <- import_hgnc_dataset())
#> # A tibble: 44,117 × 55
#>    hgnc_id    hgnc_id2 symbol    name     locus_group locus_type status location
#>    <chr>         <int> <chr>     <chr>    <chr>       <chr>      <chr>  <chr>   
#>  1 HGNC:5            5 A1BG      alpha-1… protein-co… gene with… Appro… 19q13.43
#>  2 HGNC:37133    37133 A1BG-AS1  A1BG an… non-coding… RNA, long… Appro… 19q13.43
#>  3 HGNC:24086    24086 A1CF      APOBEC1… protein-co… gene with… Appro… 10q11.23
#>  4 HGNC:7            7 A2M       alpha-2… protein-co… gene with… Appro… 12p13.31
#>  5 HGNC:27057    27057 A2M-AS1   A2M ant… non-coding… RNA, long… Appro… 12p13.31
#>  6 HGNC:23336    23336 A2ML1     alpha-2… protein-co… gene with… Appro… 12p13.31
#>  7 HGNC:41022    41022 A2ML1-AS1 A2ML1 a… non-coding… RNA, long… Appro… 12p13.31
#>  8 HGNC:41523    41523 A2ML1-AS2 A2ML1 a… non-coding… RNA, long… Appro… 12p13.31
#>  9 HGNC:8            8 A2MP1     alpha-2… pseudogene  pseudogene Appro… 12p13.31
#> 10 HGNC:30005    30005 A3GALT2   alpha 1… protein-co… gene with… Appro… 1p35.1  
#> # ℹ 44,107 more rows
#> # ℹ 47 more variables: location_sortable <chr>, alias_symbol <list>,
#> #   alias_name <list>, prev_symbol <list>, prev_name <list>, gene_group <list>,
#> #   gene_group_id <list>, date_approved_reserved <date>,
#> #   date_symbol_changed <date>, date_name_changed <date>, date_modified <date>,
#> #   entrez_id <chr>, ensembl_gene_id <chr>, vega_id <chr>, ucsc_id <chr>,
#> #   ena <list>, refseq_accession <list>, ccds_id <list>, uniprot_ids <list>, …
```
…
In addition, we also provide the function `filter_by_keyword()` that
allows filtering the data set based on a keyword or regular expression.
By default this function will look into all columns that contain gene
symbols or names (`symbol`, `name`, `alias_symbol`, `alias_name`,
`prev_symbol` and `prev_name`). It works automatically with list-columns
too.

Look for entries in the data set that contain the keyword `"TP53"`:

``` r
hgnc_dataset |>
  filter_by_keyword('TP53') |>
  dplyr::select(1:4)
#> # A tibble: 66 × 4
#>    hgnc_id    hgnc_id2 symbol      name                                       
#>    <chr>         <int> <chr>       <chr>                                      
#>  1 HGNC:49685    49685 ABHD15-AS1  ABHD15 antisense RNA 1                     
#>  2 HGNC:56226    56226 FAM169A-AS1 FAM169A antisense RNA 1                    
#>  3 HGNC:4136      4136 GAMT        guanidinoacetate N-methyltransferase       
#>  4 HGNC:54868    54868 KLRK1-AS1   KLRK1 antisense RNA 1                      
#>  5 HGNC:6568      6568 LGALS7      galectin 7                                 
#>  6 HGNC:28298    28298 LIF-AS2     LIF antisense RNA 2                        
#>  7 HGNC:26628    26628 LINC00324   long intergenic non-protein coding RNA 324 
#>  8 HGNC:28278    28278 LINC00526   long intergenic non-protein coding RNA 526 
#>  9 HGNC:53222    53222 LINC02303   long intergenic non-protein coding RNA 2303
#> 10 HGNC:53545    53545 LINC02525   long intergenic non-protein coding RNA 2525
#> # ℹ 56 more rows
```

Restrict the search to the `symbol` column:

``` r
hgnc_dataset |>
  filter_by_keyword('TP53', cols = 'symbol') |>
  dplyr::select(1:4)
#> # A tibble: 23 × 4
#>    hgnc_id    hgnc_id2 symbol    name                                           
#>    <chr>         <int> <chr>     <chr>                                          
#>  1 HGNC:11998    11998 TP53      tumor protein p53                              
#>  2 HGNC:29984    29984 TP53AIP1  tumor protein p53 regulated apoptosis inducing…
#>  3 HGNC:11999    11999 TP53BP1   tumor protein p53 binding protein 1            
#>  4 HGNC:12000    12000 TP53BP2   tumor protein p53 binding protein 2            
#>  5 HGNC:16328    16328 TP53BP2P1 tumor protein p53 binding protein 2 pseudogene…
#>  6 HGNC:43652    43652 TP53COR1  tumor protein p53 pathway corepressor 1        
#>  7 HGNC:19373    19373 TP53I3    tumor protein p53 inducible protein 3          
#>  8 HGNC:16842    16842 TP53I11   tumor protein p53 inducible protein 11         
#>  9 HGNC:25102    25102 TP53I13   tumor protein p53 inducible protein 13         
#> 10 HGNC:18022    18022 TP53INP1  tumor protein p53 inducible nuclear protein 1  
#> # ℹ 13 more rows
```
…
